{
  "tracks": {
    "href": "https://api.spotify.com/v1/search?query=The+Sign&type=track&market=CA&offset=5&limit=3",
    "items": [
      {
        "album": {
          "album_type": "album",
          "artists": [
            {
              "external_urls": {
                "spotify": "https://open.spotify.com/artist/3KV3p5EY4AvKxOlhGHORLg"
              },
              "href": "https://api.spotify.com/v1/artists/3KV3p5EY4AvKxOlhGHORLg",
              "id": "3KV3p5EY4AvKxOlhGHORLg",
              "name": "Jeremih",
              "type": "artist",
              "uri": "spotify:artist:3KV3p5EY4AvKxOlhGHORLg"
            }
          ],
          "available_markets": [
            "AD",
            "AE",
            "AR",
            "AT",
            "AU",
            "BE",
            "BG",
            "BH",
            "BO",
            "BR",
            "CA",
            "CH",
            "CL",
            "CO",
            "CR",
            "CY",
            "CZ",
            "DE",
            "DK",
            "DO",
            "DZ",
            "EC",
            "EE",
            "EG",
            "ES",
            "FI",
            "FR",
            "GB",
            "GR",
            "GT",
            "HK",
            "HN",
            "HU",
            "ID",
            "IE",
            "IL",
            "IN",
            "IS",
            "IT",
            "JO",
            "JP",
            "KW",
            "LB",
            "LI",
            "LT",
            "LU",
            "LV",
            "MA",
            "MC",
            "MT",
            "MX",
            "MY",
            "NI",
            "NL",
            "NO",
            "NZ",
            "OM",
            "PA",
            "PE",
            "PH",
            "PL",
            "PS",
            "PT",
            "PY",
            "QA",
            "RO",
            "SA",
            "SE",
            "SG",
            "SK",
            "SV",
            "TH",
            "TN",
            "TR",
            "TW",
            "US",
            "UY",
            "VN",
            "ZA"
          ],
          "external_urls": {
            "spotify": "https://open.spotify.com/album/7DMyQuDPe8xzjC0UDSDa96"
          },
          "href": "https://api.spotify.com/v1/albums/7DMyQuDPe8xzjC0UDSDa96",
          "id": "7DMyQuDPe8xzjC0UDSDa96",
          "images": [
            {
              "height": 640,
              "url": "https://i.scdn.co/image/559108cb16ce2ed5284c0f75d85ed28cf6e7e308",
              "width": 640
            },
            {
              "height": 300,
              "url": "https://i.scdn.co/image/3180391346aec681eeb0d3c06b25463f79735293",
              "width": 300
            },
            {
              "height": 64,
              "url": "https://i.scdn.co/image/2f5c67e417f37eafbde0b7c54dfbf701075050ec",
              "width": 64
            }
          ],
          "name": "Late Nights: The Album",
          "release_date": "2015-12-04",
          "release_date_precision": "day",
          "total_tracks": 15,
          "type": "album",
          "uri": "spotify:album:7DMyQuDPe8xzjC0UDSDa96"
        },
        "artists": [
          {
            "external_urls": {
              "spotify": "https://open.spotify.com/artist/3KV3p5EY4AvKxOlhGHORLg"
            },
            "href": "https://api.spotify.com/v1/artists/3KV3p5EY4AvKxOlhGHORLg",
            "id": "3KV3p5EY4AvKxOlhGHORLg",
            "name": "Jeremih",
            "type": "artist",
            "uri": "spotify:artist:3KV3p5EY4AvKxOlhGHORLg"
          },
          {
            "external_urls": {
              "spotify": "https://open.spotify.com/artist/7c0XG5cIJTrrAgEC3ULPiq"
            },
            "href": "https://api.spotify.com/v1/artists/7c0XG5cIJTrrAgEC3ULPiq",
            "id": "7c0XG5cIJTrrAgEC3ULPiq",
            "name": "Ty Dolla $ign",
            "type": "artist",
            "uri": "spotify:artist:7c0XG5cIJTrrAgEC3ULPiq"
          }
        ],
        "available_markets": [
          "AD",
          "AE",
          "AR",
          "AT",
          "AU",
          "BE",
          "BG",
          "BH",
          "BO",
          "BR",
          "CA",
          "CH",
          "CL",
          "CO",
          "CR",
          "CY",
          "CZ",
          "DE",
          "DK",
          "DO",
          "DZ",
          "EC",
          "EE",
          "EG",
          "ES",
          "FI",
          "FR",
          "GB",
          "GR",
          "GT",
          "HK",
          "HN",
          "HU",
          "ID",
          "IE",
          "IL",
          "IN",
          "IS",
          "IT",
          "JO",
          "JP",
          "KW",
          "LB",
          "LI",
          "LT",
          "LU",
          "LV",
          "MA",
          "MC",
          "MT",
          "MX",
          "MY",
          "NI",
          "NL",
          "NO",
          "NZ",
          "OM",
          "PA",
          "PE",
          "PH",
          "PL",
          "PS",
          "PT",
          "PY",
          "QA",
          "RO",
          "SA",
          "SE",
          "SG",
          "SK",
          "SV",
          "TH",
          "TN",
          "TR",
          "TW",
          "US",
          "UY",
          "VN",
          "ZA"
        ],
        "disc_number": 1,
        "duration_ms": 245520,
        "explicit": true,
        "external_ids": {
          "isrc": "USUM71517405"
        },
        "external_urls": {
          "spotify": "https://open.spotify.com/track/3WjyiSbfR74pjWXQ3IaFKJ"
        },
        "href": "https://api.spotify.com/v1/tracks/3WjyiSbfR74pjWXQ3IaFKJ",
        "id": "3WjyiSbfR74pjWXQ3IaFKJ",
        "is_local": false,
        "name": "Impatient",
        "popularity": 76,
        "preview_url": null,
        "track_number": 3,
        "type": "track",
        "uri": "spotify:track:3WjyiSbfR74pjWXQ3IaFKJ"
      },
      {
        "album": {
          "album_type": "album",
          "artists": [
            {
              "external_urls": {
                "spotify": "https://open.spotify.com/artist/1pPmIToKXyGdsCF6LmqLmI"
              },
              "href": "https://api.spotify.com/v1/artists/1pPmIToKXyGdsCF6LmqLmI",
              "id": "1pPmIToKXyGdsCF6LmqLmI",
              "name": "Rich The Kid",
              "type": "artist",
              "uri": "spotify:artist:1pPmIToKXyGdsCF6LmqLmI"
            }
          ],
          "available_markets": [
            "AD",
            "AE",
            "AR",
            "AT",
            "AU",
            "BE",
            "BG",
            "BH",
            "BO",
            "BR",
            "CA",
            "CH",
            "CL",
            "CO",
            "CR",
            "CY",
            "CZ",
            "DE",
            "DK",
            "DO",
            "DZ",
            "EC",
            "EE",
            "EG",
            "ES",
            "FI",
            "FR",
            "GB",
            "GR",
            "GT",
            "HK",
            "HN",
            "HU",
            "ID",
            "IE",
            "IL",
            "IN",
            "IS",
            "IT",
            "JO",
            "JP",
            "KW",
            "LB",
            "LI",
            "LT",
            "LU",
            "LV",
            "MA",
            "MC",
            "MT",
            "MX",
            "MY",
            "NI",
            "NL",
            "NO",
            "NZ",
            "OM",
            "PA",
            "PE",
            "PH",
            "PL",
            "PS",
            "PT",
            "PY",
            "QA",
            "RO",
            "SA",
            "SE",
            "SG",
            "SK",
            "SV",
            "TH",
            "TN",
            "TR",
            "TW",
            "US",
            "UY",
            "VN",
            "ZA"
          ],
          "external_urls": {
            "spotify": "https://open.spotify.com/album/5uetcjHDfOYrMQtKeSdScN"
          },
          "href": "https://api.spotify.com/v1/albums/5uetcjHDfOYrMQtKeSdScN",
          "id": "5uetcjHDfOYrMQtKeSdScN",
          "images": [
            {
              "height": 640,
              "url": "https://i.scdn.co/image/78a9477ccbea9c86090ca821e7d7ec8310d000bd",
              "width": 640
            },
            {
              "height": 300,
              "url": "https://i.scdn.co/image/0cc9019367506a877204c566afe4ff0f9de0c012",
              "width": 300
            },
            {
              "height": 64,
              "url": "https://i.scdn.co/image/fcc644bbc0e696460cf418cb397af16484dee4b6",
              "width": 64
            }
          ],
          "name": "The World Is Yours 2",
          "release_date": "2019-03-22",
          "release_date_precision": "day",
          "total_tracks": 16,
          "type": "album",
          "uri": "spotify:album:5uetcjHDfOYrMQtKeSdScN"
        },
        "artists": [
          {
            "external_urls": {
              "spotify": "https://open.spotify.com/artist/1pPmIToKXyGdsCF6LmqLmI"
            },
            "href": "https://api.spotify.com/v1/artists/1pPmIToKXyGdsCF6LmqLmI",
            "id": "1pPmIToKXyGdsCF6LmqLmI",
            "name": "Rich The Kid",
            "type": "artist",
            "uri": "spotify:artist:1pPmIToKXyGdsCF6LmqLmI"
          },
          {
            "external_urls": {
              "spotify": "https://open.spotify.com/artist/360IAlyVv4PCEVjgyMZrxK"
            },
            "href": "https://api.spotify.com/v1/artists/360IAlyVv4PCEVjgyMZrxK",
            "id": "360IAlyVv4PCEVjgyMZrxK",
            "name": "Miguel",
            "type": "artist",
            "uri": "spotify:artist:360IAlyVv4PCEVjgyMZrxK"
          },
          {
            "external_urls": {
              "spotify": "https://open.spotify.com/artist/7c0XG5cIJTrrAgEC3ULPiq"
            },
            "href": "https://api.spotify.com/v1/artists/7c0XG5cIJTrrAgEC3ULPiq",
            "id": "7c0XG5cIJTrrAgEC3ULPiq",
            "name": "Ty Dolla $ign",
            "type": "artist",
            "uri": "spotify:artist:7c0XG5cIJTrrAgEC3ULPiq"
          }
        ],
        "available_markets": [
          "AD",
          "AE",
          "AR",
          "AT",
          "AU",
          "BE",
          "BG",
          "BH",
          "BO",
          "BR",
          "CA",
          "CH",
          "CL",
          "CO",
          "CR",
          "CY",
          "CZ",
          "DE",
          "DK",
          "DO",
          "DZ",
          "EC",
          "EE",
          "EG",
          "ES",
          "FI",
          "FR",
          "GB",
          "GR",
          "GT",
          "HK",
          "HN",
          "HU",
          "ID",
          "IE",
          "IL",
          "IN",
          "IS",
          "IT",
          "JO",
          "JP",
          "KW",
          "LB",
          "LI",
          "LT",
          "LU",
          "LV",
          "MA",
          "MC",
          "MT",
          "MX",
          "MY",
          "NI",
          "NL",
          "NO",
          "NZ",
          "OM",
          "PA",
          "PE",
          "PH",
          "PL",
          "PS",
          "PT",
          "PY",
          "QA",
          "RO",
          "SA",
          "SE",
          "SG",
          "SK",
          "SV",
          "TH",
          "TN",
          "TR",
          "TW",
          "US",
          "UY",
          "VN",
          "ZA"
        ],
        "disc_number": 1,
        "duration_ms": 172191,
        "explicit": false,
        "external_ids": {
          "isrc": "USUM71904017"
        },
        "external_urls": {
          "spotify": "https://open.spotify.com/track/6kpgjABWoiIxEhpiHPsaXD"
        },
        "href": "https://api.spotify.com/v1/tracks/6kpgjABWoiIxEhpiHPsaXD",
        "id": "6kpgjABWoiIxEhpiHPsaXD",
        "is_local": false,
        "name": "Woah (feat. Miguel & Ty Dolla $ign)",
        "popularity": 32,
        "preview_url": null,
        "track_number": 8,
        "type": "track",
        "uri": "spotify:track:6kpgjABWoiIxEhpiHPsaXD"
      },
      {
        "album": {
          "album_type": "album",
          "artists": [
            {
              "external_urls": {
                "spotify": "https://open.spotify.com/artist/5ksRONqssB7BR161NTtJAm"
              },
              "href": "https://api.spotify.com/v1/artists/5ksRONqssB7BR161NTtJAm",
              "id": "5ksRONqssB7BR161NTtJAm",
              "name": "Ace of Base",
              "type": "artist",
              "uri": "spotify:artist:5ksRONqssB7BR161NTtJAm"
            }
          ],
          "available_markets": [
            "AD",
            "AE",
            "AR",
            "AT",
            "AU",
            "BE",
            "BG",
            "BH",
            "BO",
            "BR",
            "CA",
            "CH",
            "CL",
            "CO",
            "CR",
            "CY",
            "CZ",
            "DE",
            "DK",
            "DO",
            "DZ",
            "EC",
            "EE",
            "EG",
            "ES",
            "FI",
            "FR",
            "GB",
            "GR",
            "GT",
            "HK",
            "HN",
            "HU",
            "ID",
            "IE",
            "IL",
            "IN",
            "IS",
            "IT",
            "JO",
            "JP",
            "KW",
            "LB",
            "LI",
            "LT",
            "LU",
            "LV",
            "MA",
            "MC",
            "MT",
            "MX",
            "MY",
            "NI",
            "NL",
            "NO",
            "NZ",
            "OM",
            "PA",
            "PE",
            "PH",
            "PL",
            "PS",
            "PT",
            "PY",
            "QA",
            "RO",
            "SA",
            "SE",
            "SG",
            "SK",
            "SV",
            "TH",
            "TN",
            "TR",
            "TW",
            "US",
            "UY",
            "VN",
            "ZA"
          ],
          "external_urls": {
            "spotify": "https://open.spotify.com/album/5UwIyIyFzkM7wKeGtRJPgB"
          },
          "href": "https://api.spotify.com/v1/albums/5UwIyIyFzkM7wKeGtRJPgB",
          "id": "5UwIyIyFzkM7wKeGtRJPgB",
          "images": [
            {
              "height": 600,
              "url": "https://i.scdn.co/image/420f7961d01701f6d4fe8fcd6c99fde0d13e7da7",
              "width": 600
            },
            {
              "height": 300,
              "url": "https://i.scdn.co/image/14a8250ab9767f68eb58a7bcc1b2864dada763bf",
              "width": 300
            },
            {
              "height": 64,
              "url": "https://i.scdn.co/image/81d371b69683de3224b978eff7d57d2e9ddc9994",
              "width": 64
            }
          ],
          "name": "The Sign (US Album) [Remastered]",
          "release_date": "1993",
          "release_date_precision": "year",
          "total_tracks": 13,
          "type": "album",
          "uri": "spotify:album:5UwIyIyFzkM7wKeGtRJPgB"
        },
        "artists": [
          {
            "external_urls": {
              "spotify": "https://open.spotify.com/artist/5ksRONqssB7BR161NTtJAm"
            },
            "href": "https://api.spotify.com/v1/artists/5ksRONqssB7BR161NTtJAm",
            "id": "5ksRONqssB7BR161NTtJAm",
            "name": "Ace of Base",
            "type": "artist",
            "uri": "spotify:artist:5ksRONqssB7BR161NTtJAm"
          }
        ],
        "available_markets": [
          "AD",
          "AE",
          "AR",
          "AT",
          "AU",
          "BE",
          "BG",
          "BH",
          "BO",
          "BR",
          "CA",
          "CH",
          "CL",
          "CO",
          "CR",
          "CY",
          "CZ",
          "DE",
          "DK",
          "DO",
          "DZ",
          "EC",
          "EE",
          "EG",
          "ES",
          "FI",
          "FR",
          "GB",
          "GR",
          "GT",
          "HK",
          "HN",
          "HU",
          "ID",
          "IE",
          "IL",
          "IN",
          "IS",
          "IT",
          "JO",
          "JP",
          "KW",
          "LB",
          "LI",
          "LT",
          "LU",
          "LV",
          "MA",
          "MC",
          "MT",
          "MX",
          "MY",
          "NI",
          "NL",
          "NO",
          "NZ",
          "OM",
          "PA",
          "PE",
          "PH",
          "PL",
          "PS",
          "PT",
          "PY",
          "QA",
          "RO",
          "SA",
          "SE",
          "SG",
          "SK",
          "SV",
          "TH",
          "TN",
          "TR",
          "TW",
          "US",
          "UY",
          "VN",
          "ZA"
        ],
        "disc_number": 1,
        "duration_ms": 191240,
        "explicit": false,
        "external_ids": {
          "isrc": "SEVJH0803404"
        },
        "external_urls": {
          "spotify": "https://open.spotify.com/track/0hrBpAOgrt8RXigk83LLNE"
        },
        "href": "https://api.spotify.com/v1/tracks/0hrBpAOgrt8RXigk83LLNE",
        "id": "0hrBpAOgrt8RXigk83LLNE",
        "is_local": false,
        "name": "The Sign",
        "popularity": 69,
        "preview_url": "https://p.scdn.co/mp3-preview/4c463359f67dd3546db7294d236dd0ae991882ff?cid=774b29d4f13844c495f206cafdad9c86",
        "track_number": 4,
        "type": "track",
        "uri": "spotify:track:0hrBpAOgrt8RXigk83LLNE"
      }
    ],
    "limit": 3,
    "next": "https://api.spotify.com/v1/search?query=The+Sign&type=track&market=CA&offset=8&limit=3",
    "offset": 5,
    "previous": "https://api.spotify.com/v1/search?query=The+Sign&type=track&market=CA&offset=2&limit=3",
    "total": 17182
  }
}